{"pager":{"page":1,"pageCount":55,"total":2736,"nextPage":"https://dhis.moh.go.tz/api/indicators?page=2"},"indicators":[{"id":"AHcdWDFaeZi","created":"2012-09-28T01:59:20.408+0000","name":"Albendazole Availability","lastUpdated":"2015-07-13T14:36:05.664+0000","href":"https://dhis.moh.go.tz/api/indicators/AHcdWDFaeZi"},{"id":"KxS8b24bAZC","created":"2012-09-28T01:59:03.040+0000","name":"Amoxycillin Availability","lastUpdated":"2013-04-22T09:01:53.515+0000","href":"https://dhis.moh.go.tz/api/indicators/KxS8b24bAZC"},{"id":"yVxZNM2lC2W","created":"2013-08-14T08:15:09.493+0000","name":"Anaemia, Mild/ Moderate Admission <5","lastUpdated":"2015-06-29T03:04:12.364+0000","href":"https://dhis.moh.go.tz/api/indicators/yVxZNM2lC2W"},{"id":"Ud7KRAKhzrf","created":"2013-08-14T08:17:12.205+0000","name":"Anaemia, Mild/ Moderate Admission >=5","lastUpdated":"2013-08-14T08:17:12.208+0000","href":"https://dhis.moh.go.tz/api/indicators/Ud7KRAKhzrf"},{"id":"ZFIaG0wODL0","created":"2013-08-14T08:11:12.181+0000","name":"Anaemia, Mild/ Moderate OPD <5","lastUpdated":"2013-08-14T08:11:12.189+0000","href":"https://dhis.moh.go.tz/api/indicators/ZFIaG0wODL0"},{"id":"cqPQdbipZWC","created":"2013-08-14T08:11:48.549+0000","name":"Anaemia, Mild/ Moderate OPD >=5","lastUpdated":"2013-08-14T08:11:48.553+0000","href":"https://dhis.moh.go.tz/api/indicators/cqPQdbipZWC"},{"id":"ACzl5sj5Uwx","created":"2013-08-14T08:19:08.922+0000","name":"Anaemia, Severe Admission <5","lastUpdated":"2013-08-14T08:19:08.926+0000","href":"https://dhis.moh.go.tz/api/indicators/ACzl5sj5Uwx"},{"id":"b2ovy5uaJaT","created":"2013-08-14T08:19:51.696+0000","name":"Anaemia, Severe Admission >=5","lastUpdated":"2013-08-14T08:19:51.703+0000","href":"https://dhis.moh.go.tz/api/indicators/b2ovy5uaJaT"},{"id":"w6yne7IFESV","created":"2013-08-14T08:12:53.205+0000","name":"Anaemia, Severe OPD <5","lastUpdated":"2013-08-14T08:12:53.208+0000","href":"https://dhis.moh.go.tz/api/indicators/w6yne7IFESV"},{"id":"nAn4dnzJfc8","created":"2013-08-14T08:13:50.725+0000","name":"Anaemia, Severe OPD >=5","lastUpdated":"2013-08-14T08:13:50.729+0000","href":"https://dhis.moh.go.tz/api/indicators/nAn4dnzJfc8"},{"id":"ge9iOMDFg4T","created":"2014-01-08T16:53:44.440+0000","name":"ANC 1-4 visit Dropout Rate","lastUpdated":"2015-03-16T21:16:04.808+0000","href":"https://dhis.moh.go.tz/api/indicators/ge9iOMDFg4T"},{"id":"oazOp512ShT","created":"2013-03-13T09:33:49.458+0000","name":"ANC 1st visit coverage","lastUpdated":"2015-07-02T07:58:51.529+0000","href":"https://dhis.moh.go.tz/api/indicators/oazOp512ShT"},{"id":"QiA9L6tNHFy","created":"2012-11-30T03:25:25.471+0000","name":"ANC 4th visits Coverage","lastUpdated":"2015-03-16T21:16:13.499+0000","href":"https://dhis.moh.go.tz/api/indicators/QiA9L6tNHFy"},{"id":"JT9AlIbDl1H","created":"2012-11-29T03:27:40.032+0000","name":"ANC Anaemia Prevalance","lastUpdated":"2014-05-08T18:42:00.207+0000","href":"https://dhis.moh.go.tz/api/indicators/JT9AlIbDl1H"},{"id":"cEtMEKKCD6z","created":"2014-10-15T11:56:14.070+0000","name":"ANC Couple Testing Rate","lastUpdated":"2015-03-16T21:17:28.534+0000","href":"https://dhis.moh.go.tz/api/indicators/cEtMEKKCD6z"},{"id":"ovRcOHNO7qZ","created":"2012-11-29T03:43:41.528+0000","name":"ANC de-worming rate","lastUpdated":"2013-04-22T09:01:49.218+0000","href":"https://dhis.moh.go.tz/api/indicators/ovRcOHNO7qZ"},{"id":"K4Wu2DaROZR","created":"2012-11-29T03:55:26.313+0000","name":"ANC HIV+ given ART rate","lastUpdated":"2013-04-22T09:01:53.355+0000","href":"https://dhis.moh.go.tz/api/indicators/K4Wu2DaROZR"},{"id":"jjmSfPm3dJk","created":"2012-11-29T03:58:14.243+0000","name":"ANC HIV+ given ARV rate","lastUpdated":"2014-05-20T09:29:17.717+0000","href":"https://dhis.moh.go.tz/api/indicators/jjmSfPm3dJk"},{"id":"TdxVgoa08tn","created":"2014-04-22T13:36:16.833+0000","name":"ANC HIV prevalence (15-24 years)","lastUpdated":"2014-05-19T12:08:28.660+0000","href":"https://dhis.moh.go.tz/api/indicators/TdxVgoa08tn"},{"id":"cbMFAd44Lih","created":"2013-03-13T09:33:22.328+0000","name":"ANC HIV prevalence 1st Test","lastUpdated":"2014-01-08T16:36:14.506+0000","href":"https://dhis.moh.go.tz/api/indicators/cbMFAd44Lih"},{"id":"Xpc15t46JX4","created":"2014-01-08T16:38:11.378+0000","name":"ANC HIV prevalence 2nd Test","lastUpdated":"2014-01-08T16:38:40.264+0000","href":"https://dhis.moh.go.tz/api/indicators/Xpc15t46JX4"},{"id":"CyjrlUmevCP","created":"2014-04-19T13:05:51.541+0000","name":"ANC HIV Prevalence under 25 years","lastUpdated":"2014-04-19T13:05:51.616+0000","href":"https://dhis.moh.go.tz/api/indicators/CyjrlUmevCP"},{"id":"bSGgVZvFfmH","created":"2012-12-12T04:26:53.418+0000","name":"ANC HIV testing rate(% of Pregnant women tested for HIV)","lastUpdated":"2013-04-22T09:01:54.168+0000","href":"https://dhis.moh.go.tz/api/indicators/bSGgVZvFfmH"},{"id":"aw1jQ1tJTmE","created":"2013-03-13T09:34:37.059+0000","name":"ANC IPT 1 coverage","lastUpdated":"2015-03-16T21:16:24.157+0000","href":"https://dhis.moh.go.tz/api/indicators/aw1jQ1tJTmE"},{"id":"i47jm4Pkkq6","created":"2013-01-04T11:42:15.063+0000","name":"ANC IPT 2 coverage","lastUpdated":"2015-03-16T21:16:33.608+0000","href":"https://dhis.moh.go.tz/api/indicators/i47jm4Pkkq6"},{"id":"iGbAQJ0V68E","created":"2012-11-29T04:16:05.757+0000","name":"ANC Iron supplementation rate","lastUpdated":"2013-04-22T09:01:49.225+0000","href":"https://dhis.moh.go.tz/api/indicators/iGbAQJ0V68E"},{"id":"vfaY7k6TINl","created":"2013-03-13T09:35:00.152+0000","name":"ANC Malaria prevalence","lastUpdated":"2013-04-22T09:01:54.325+0000","href":"https://dhis.moh.go.tz/api/indicators/vfaY7k6TINl"},{"id":"FaooqUblXag","created":"2012-06-12T09:15:23.562+0000","name":"ANC Malaria testing rate","lastUpdated":"2013-04-22T09:01:53.392+0000","href":"https://dhis.moh.go.tz/api/indicators/FaooqUblXag"},{"id":"b7CaB2YRzON","created":"2012-06-12T09:44:31.653+0000","name":"ANC partners HIV prevalance","lastUpdated":"2013-04-22T09:01:53.396+0000","href":"https://dhis.moh.go.tz/api/indicators/b7CaB2YRzON"},{"id":"gX4BXElmOyd","created":"2012-06-12T09:28:47.007+0000","name":"ANC Partners HIV testing rate","lastUpdated":"2013-04-22T09:01:49.164+0000","href":"https://dhis.moh.go.tz/api/indicators/gX4BXElmOyd"},{"id":"Wqdkddpf9fB","created":"2012-06-12T10:03:27.151+0000","name":"ANC Partners Syphilis testing rate","lastUpdated":"2013-04-22T09:01:50.216+0000","href":"https://dhis.moh.go.tz/api/indicators/Wqdkddpf9fB"},{"id":"BqowH5E3ytQ","created":"2012-11-29T04:44:51.982+0000","name":"ANC Partners Syphilis +VE prevalance ","lastUpdated":"2013-04-22T09:01:54.072+0000","href":"https://dhis.moh.go.tz/api/indicators/BqowH5E3ytQ"},{"id":"mb7EIJYVFWg","created":"2013-03-18T09:34:34.972+0000","name":"ANC Partner Syphilis treatment rate","lastUpdated":"2013-04-22T09:01:53.486+0000","href":"https://dhis.moh.go.tz/api/indicators/mb7EIJYVFWg"},{"id":"fIX6BDA9MG3","created":"2012-03-01T10:59:01.380+0000","name":"ANC PMTCT protection  rate ","lastUpdated":"2013-04-22T09:01:50.211+0000","href":"https://dhis.moh.go.tz/api/indicators/fIX6BDA9MG3"},{"id":"NYi7SXGMs0y","created":"2012-11-29T05:28:36.287+0000","name":"ANC Positive women proportion receiving combined treatment","lastUpdated":"2013-04-22T09:01:54.082+0000","href":"https://dhis.moh.go.tz/api/indicators/NYi7SXGMs0y"},{"id":"CkXZ2xEQMSg","created":"2012-05-08T14:20:31.911+0000","name":"ANC Positive women receiving Doses","lastUpdated":"2013-04-22T09:01:53.347+0000","href":"https://dhis.moh.go.tz/api/indicators/CkXZ2xEQMSg"},{"id":"qB97FInwuD8","created":"2012-11-30T03:22:28.913+0000","name":"ANC:Proportion of pregnant women receiving 2 doses of SP","lastUpdated":"2013-04-22T09:01:54.145+0000","href":"https://dhis.moh.go.tz/api/indicators/qB97FInwuD8"},{"id":"tit1C1VPIV7","created":"2012-11-30T03:31:22.226+0000","name":"ANC Proportion of pregnant women receiving ITN Voucher","lastUpdated":"2014-05-20T09:37:19.953+0000","href":"https://dhis.moh.go.tz/api/indicators/tit1C1VPIV7"},{"id":"DHP2lGgo4kH","created":"2012-11-30T03:36:51.781+0000","name":"ANC Proportion of pregnant women receiving TT2+","lastUpdated":"2014-05-19T17:28:31.546+0000","href":"https://dhis.moh.go.tz/api/indicators/DHP2lGgo4kH"},{"id":"iiEshI9YntM","created":"2012-11-30T03:39:38.413+0000","name":"ANC Proportion of women tested for Anaemia","lastUpdated":"2013-04-22T09:01:53.359+0000","href":"https://dhis.moh.go.tz/api/indicators/iiEshI9YntM"},{"id":"UCizVx5pwfk","created":"2012-11-30T03:41:54.235+0000","name":"ANC Proportion of women tested for Syphilis","lastUpdated":"2013-04-22T09:01:49.232+0000","href":"https://dhis.moh.go.tz/api/indicators/UCizVx5pwfk"},{"id":"aEcdPpCOi3k","created":"2012-02-09T10:19:12.671+0000","name":"ANC Syphilis Prevalance","lastUpdated":"2013-04-22T09:01:49.774+0000","href":"https://dhis.moh.go.tz/api/indicators/aEcdPpCOi3k"},{"id":"bUwhU99vQS4","created":"2012-11-29T05:45:27.652+0000","name":"ANC Syphilis treatment rate","lastUpdated":"2013-04-22T09:01:49.238+0000","href":"https://dhis.moh.go.tz/api/indicators/bUwhU99vQS4"},{"id":"TRoamv0YPt3","created":"2012-10-02T05:18:12.157+0000","name":"ANC visits before 12 weeks rate","lastUpdated":"2014-05-19T13:39:07.835+0000","href":"https://dhis.moh.go.tz/api/indicators/TRoamv0YPt3"},{"id":"wjGjt5bacv6","created":"2012-06-26T11:57:53.037+0000","name":"Artemether / Lumefantrine Oral Available","lastUpdated":"2013-04-22T09:01:53.427+0000","href":"https://dhis.moh.go.tz/api/indicators/wjGjt5bacv6"},{"id":"KaFM3BiDakD","created":"2012-02-09T10:24:29.984+0000","name":"ARV at birth rate","lastUpdated":"2013-04-22T09:01:49.134+0000","href":"https://dhis.moh.go.tz/api/indicators/KaFM3BiDakD"},{"id":"ZFd9gYRN2yo","created":"2014-10-03T12:04:39.976+0000","name":"ARV Doses Given to deliveried Children","lastUpdated":"2014-10-03T12:04:39.983+0000","href":"https://dhis.moh.go.tz/api/indicators/ZFd9gYRN2yo"},{"id":"L2aG4fzSpLo","created":"2014-12-02T08:32:12.608+0000","name":"Average monthly consumption(AMC)A/3_TLE8","lastUpdated":"2015-07-19T20:20:05.054+0000","href":"https://dhis.moh.go.tz/api/indicators/L2aG4fzSpLo"},{"id":"eYySidukA3z","created":"2014-09-16T12:19:17.152+0000","name":"B09  Total New Cases New extra-pulmonary Lost to follow up Female","lastUpdated":"2014-09-16T12:19:17.157+0000","href":"https://dhis.moh.go.tz/api/indicators/eYySidukA3z"},{"id":"fNzohDYSsYb","created":"2014-09-16T12:21:49.567+0000","name":"B09  Total New Cases New extra-pulmonary Not Evaluated  Female","lastUpdated":"2014-09-16T12:21:49.572+0000","href":"https://dhis.moh.go.tz/api/indicators/fNzohDYSsYb"}]}