{"pager":{"page":2,"pageCount":6,"total":267,"nextPage":"https://dhis.moh.go.tz/api/maps?page=3","prevPage":"https://dhis.moh.go.tz/api/maps"},"maps":[{"id":"cuHVFx0nf9y","created":"2013-03-20T09:45:18.128+0000","name":"Facilities for Lindi Region","lastUpdated":"2013-03-20T09:45:18.128+0000","href":"https://dhis.moh.go.tz/api/maps/cuHVFx0nf9y"},{"id":"f4BhGltJuNb","created":"2013-03-20T09:50:37.672+0000","name":"Facilities For Lindi Region","lastUpdated":"2013-03-20T09:50:37.672+0000","href":"https://dhis.moh.go.tz/api/maps/f4BhGltJuNb"},{"id":"b482ICJNvOH","created":"2013-12-07T16:31:07.850+0000","name":"gis prevalnce rate","lastUpdated":"2013-12-07T16:31:07.850+0000","href":"https://dhis.moh.go.tz/api/maps/b482ICJNvOH"},{"id":"fTJ7EQfU3M6","created":"2014-06-13T11:12:14.216+0000","name":"HBB: Still birth Fresh","lastUpdated":"2014-06-13T11:12:14.216+0000","href":"https://dhis.moh.go.tz/api/maps/fTJ7EQfU3M6"},{"id":"AjkDUOTbP3S","created":"2012-11-28T14:38:27.201+0000","name":"Health Facility Delivery Rate","lastUpdated":"2012-11-28T14:38:27.201+0000","href":"https://dhis.moh.go.tz/api/maps/AjkDUOTbP3S"},{"id":"qrZjH7r6WBA","created":"2013-09-23T15:47:35.619+0000","name":"HIV/ AIDS PREVALENCE","lastUpdated":"2013-09-23T15:47:35.619+0000","href":"https://dhis.moh.go.tz/api/maps/qrZjH7r6WBA"},{"id":"n0YiQqGv3NK","created":"2013-09-23T15:47:35.538+0000","name":"HIV/ AIDS PREVALENCE","lastUpdated":"2013-09-23T15:47:35.538+0000","href":"https://dhis.moh.go.tz/api/maps/n0YiQqGv3NK"},{"id":"WfGHcALO2lZ","created":"2013-09-23T15:59:28.772+0000","name":"HIV/ AIDS PREVALENCE BY FACILITIES","lastUpdated":"2013-09-23T15:59:28.772+0000","href":"https://dhis.moh.go.tz/api/maps/WfGHcALO2lZ"},{"id":"a2Z4BUsdAIn","created":"2013-12-04T13:41:00.209+0000","name":"HIV BUSOKELO","lastUpdated":"2013-12-04T13:41:00.209+0000","href":"https://dhis.moh.go.tz/api/maps/a2Z4BUsdAIn"},{"id":"p6nBWyT9QGu","created":"2013-12-07T16:33:55.724+0000","name":"HIV PREVALANCE","lastUpdated":"2013-12-07T16:33:55.724+0000","href":"https://dhis.moh.go.tz/api/maps/p6nBWyT9QGu"},{"id":"eb0fkf7MNQM","created":"2013-09-23T15:59:09.640+0000","name":"HIV prevelence- Kibaha","lastUpdated":"2013-09-23T15:59:09.640+0000","href":"https://dhis.moh.go.tz/api/maps/eb0fkf7MNQM"},{"id":"nok7bpc9kiC","created":"2014-08-28T08:54:30.587+0000","name":"HMIS UNIT KMC","lastUpdated":"2014-08-28T08:54:30.587+0000","href":"https://dhis.moh.go.tz/api/maps/nok7bpc9kiC"},{"id":"DaMlc2a9CoZ","created":"2014-10-11T12:24:02.696+0000","name":"HUMAN RESOURSE BY SINDA","lastUpdated":"2014-10-11T12:24:02.696+0000","href":"https://dhis.moh.go.tz/api/maps/DaMlc2a9CoZ"},{"id":"kICsgruJJ8r","created":"2014-06-02T17:19:33.719+0000","name":"IDSR Malaria Confirmed by Region","lastUpdated":"2014-11-24T16:30:27.657+0000","href":"https://dhis.moh.go.tz/api/maps/kICsgruJJ8r"},{"id":"xFiyztS0Cq1","created":"2014-05-11T13:27:35.330+0000","name":"IKUNGI HEALTH FACILITIES.","lastUpdated":"2014-05-11T13:27:35.330+0000","href":"https://dhis.moh.go.tz/api/maps/xFiyztS0Cq1"},{"id":"Elc26iylJEI","created":"2015-03-16T22:05:21.053+0000","name":"Immunization: BCG coverage 2014","lastUpdated":"2015-03-16T22:05:21.054+0000","href":"https://dhis.moh.go.tz/api/maps/Elc26iylJEI"},{"id":"Ik67Y2iAf1p","created":"2015-03-16T23:32:53.111+0000","name":"Immunization: OPV 1 coverage last year","lastUpdated":"2015-03-16T23:32:53.111+0000","href":"https://dhis.moh.go.tz/api/maps/Ik67Y2iAf1p"},{"id":"udQZIRXyuZ8","created":"2015-03-16T23:33:15.337+0000","name":"Immunization: OPV 3 coverage last year","lastUpdated":"2015-03-16T23:33:15.337+0000","href":"https://dhis.moh.go.tz/api/maps/udQZIRXyuZ8"},{"id":"wwwKS5l5DfK","created":"2015-03-16T23:33:37.918+0000","name":"Immunization: Penat 1 coverage last year","lastUpdated":"2015-03-16T23:33:37.918+0000","href":"https://dhis.moh.go.tz/api/maps/wwwKS5l5DfK"},{"id":"JICXYqxSb0P","created":"2015-03-16T23:34:03.772+0000","name":"Immunization: Penta 3 under 1 coverage last yaer","lastUpdated":"2015-03-16T23:34:03.772+0000","href":"https://dhis.moh.go.tz/api/maps/JICXYqxSb0P"},{"id":"ObU9ZDvQw3k","created":"2014-06-29T16:21:37.879+0000","name":"Inno","lastUpdated":"2014-06-29T16:21:37.879+0000","href":"https://dhis.moh.go.tz/api/maps/ObU9ZDvQw3k"},{"id":"veTqXtyIjLG","created":"2013-12-14T16:13:57.353+0000","name":"IRAMBA MAP TO SHOWING DISTRICT","lastUpdated":"2013-12-14T16:13:57.353+0000","href":"https://dhis.moh.go.tz/api/maps/veTqXtyIjLG"},{"id":"EYlxqeN5mcP","created":"2013-12-07T16:44:54.989+0000","name":"KAGERA MAPS","lastUpdated":"2013-12-07T16:44:54.989+0000","href":"https://dhis.moh.go.tz/api/maps/EYlxqeN5mcP"},{"id":"rX7NHzPoTNH","created":"2013-12-10T12:00:25.778+0000","name":"KALIUA HEALTH FACILITIES","lastUpdated":"2013-12-10T12:00:25.778+0000","href":"https://dhis.moh.go.tz/api/maps/rX7NHzPoTNH"},{"id":"RYDbCrKa7XU","created":"2013-12-10T13:09:13.488+0000","name":"kaliua map","lastUpdated":"2013-12-10T13:09:13.488+0000","href":"https://dhis.moh.go.tz/api/maps/RYDbCrKa7XU"},{"id":"rRA5V5XCqbJ","created":"2013-12-10T11:51:54.949+0000","name":"KALIUA PERFOMANCE ON DTC FOR SSEPTEMBER 2013","lastUpdated":"2013-12-10T11:51:54.949+0000","href":"https://dhis.moh.go.tz/api/maps/rRA5V5XCqbJ"},{"id":"zsE71IyLV4A","created":"2013-12-17T17:22:11.882+0000","name":"KASULU DISTRICT ANC 4TH VISIT FACILITY ","lastUpdated":"2013-12-17T17:22:11.882+0000","href":"https://dhis.moh.go.tz/api/maps/zsE71IyLV4A"},{"id":"RQm6INRRLof","created":"2013-12-17T17:22:10.493+0000","name":"KASULU DISTRICT ANC 4TH VISIT FACILITY ","lastUpdated":"2013-12-17T17:22:10.493+0000","href":"https://dhis.moh.go.tz/api/maps/RQm6INRRLof"},{"id":"whPXxuCRSmU","created":"2013-12-17T17:22:09.974+0000","name":"KASULU DISTRICT ANC 4TH VISIT FACILITY ","lastUpdated":"2013-12-17T17:22:09.974+0000","href":"https://dhis.moh.go.tz/api/maps/whPXxuCRSmU"},{"id":"YAqgmFlcobZ","created":"2013-12-08T08:42:26.850+0000","name":"KGR DISTRICTS","lastUpdated":"2013-12-08T08:42:26.850+0000","href":"https://dhis.moh.go.tz/api/maps/YAqgmFlcobZ"},{"id":"VFgpGcXUUov","created":"2013-06-27T18:32:27.018+0000","name":"KIGOMA","lastUpdated":"2013-06-27T18:32:27.018+0000","href":"https://dhis.moh.go.tz/api/maps/VFgpGcXUUov"},{"id":"luWNxqOoFsl","created":"2013-12-17T17:24:53.333+0000","name":"KIGOMA 4TH VISIT ANC VISIT COVERAGE FACILITY WISE","lastUpdated":"2013-12-17T17:24:53.333+0000","href":"https://dhis.moh.go.tz/api/maps/luWNxqOoFsl"},{"id":"sV4jTWjH6ls","created":"2013-12-17T17:25:35.815+0000","name":"KIGOMA ANC","lastUpdated":"2013-12-17T17:25:35.815+0000","href":"https://dhis.moh.go.tz/api/maps/sV4jTWjH6ls"},{"id":"pyrd7wKBQ3x","created":"2013-12-17T17:20:34.912+0000","name":"KIGOMA ANC 4TH COVERAGE FACILITY WISE","lastUpdated":"2013-12-17T17:20:34.912+0000","href":"https://dhis.moh.go.tz/api/maps/pyrd7wKBQ3x"},{"id":"l35GEIJrqzl","created":"2013-12-17T17:25:45.762+0000","name":"KIGOMA ANC  4TH VISIT COVEAGE","lastUpdated":"2013-12-17T17:25:45.762+0000","href":"https://dhis.moh.go.tz/api/maps/l35GEIJrqzl"},{"id":"ZFM5rMBegq5","created":"2013-12-17T17:21:30.313+0000","name":"Kigoma ANC 4Th visit coverage","lastUpdated":"2013-12-17T17:21:30.313+0000","href":"https://dhis.moh.go.tz/api/maps/ZFM5rMBegq5"},{"id":"GyWdAHIqTWk","created":"2013-12-17T17:20:55.684+0000","name":"KIGOMA ANC 4th VISIT COVERAGE","lastUpdated":"2013-12-17T17:20:55.684+0000","href":"https://dhis.moh.go.tz/api/maps/GyWdAHIqTWk"},{"id":"dcPYX8kZuu0","created":"2013-12-17T17:21:43.924+0000","name":"KIGOMAANC4TH visit coverage","lastUpdated":"2013-12-17T17:21:43.924+0000","href":"https://dhis.moh.go.tz/api/maps/dcPYX8kZuu0"},{"id":"Ht2bGnFM1Tc","created":"2013-12-17T17:21:18.094+0000","name":"kigoma ANC 4th visit coverage facility wise","lastUpdated":"2013-12-17T17:21:18.094+0000","href":"https://dhis.moh.go.tz/api/maps/Ht2bGnFM1Tc"},{"id":"HKwGKwfg9Kp","created":"2013-12-17T17:20:46.170+0000","name":"kigoma ANC 4th visit coverage facility wise","lastUpdated":"2013-12-17T17:20:46.170+0000","href":"https://dhis.moh.go.tz/api/maps/HKwGKwfg9Kp"},{"id":"xbbTzJNPQYN","created":"2013-12-17T17:21:14.586+0000","name":"Kigoma ANC 4th visit coverage facility wise","lastUpdated":"2013-12-17T17:21:14.586+0000","href":"https://dhis.moh.go.tz/api/maps/xbbTzJNPQYN"},{"id":"nksV6zmfQFl","created":"2013-12-17T17:21:14.022+0000","name":"Kigoma ANC 4th Visit Coverage Facility wise.","lastUpdated":"2013-12-17T17:21:14.022+0000","href":"https://dhis.moh.go.tz/api/maps/nksV6zmfQFl"},{"id":"YpszTEbmbNL","created":"2013-12-17T17:21:29.412+0000","name":"KIGOMA ANC 4TH VISIT COVERAGE FACILITY WISE AGUST 2013","lastUpdated":"2013-12-17T17:21:29.412+0000","href":"https://dhis.moh.go.tz/api/maps/YpszTEbmbNL"},{"id":"mjvx71ZBsUf","created":"2013-12-17T17:21:15.740+0000","name":"kigoma  anc  4thvistcoveragefacility wise","lastUpdated":"2013-12-17T17:21:15.740+0000","href":"https://dhis.moh.go.tz/api/maps/mjvx71ZBsUf"},{"id":"AEtSG3gwX03","created":"2013-12-17T17:23:47.897+0000","name":"Kigoma ANC 4th vist coverage s","lastUpdated":"2013-12-17T17:23:47.897+0000","href":"https://dhis.moh.go.tz/api/maps/AEtSG3gwX03"},{"id":"gO8ESVPF5jM","created":"2013-12-17T17:20:41.800+0000","name":"Kigoma ANC fouth visit coverage","lastUpdated":"2013-12-17T17:20:41.800+0000","href":"https://dhis.moh.go.tz/api/maps/gO8ESVPF5jM"},{"id":"dEiQ93rZh5u","created":"2013-12-17T17:21:14.364+0000","name":"KIGOMA ANC REPORT FACILITY WISE","lastUpdated":"2013-12-17T17:21:14.364+0000","href":"https://dhis.moh.go.tz/api/maps/dEiQ93rZh5u"},{"id":"jpUjaDiBDbm","created":"2014-11-12T10:42:50.589+0000","name":"kigoma map","lastUpdated":"2014-11-12T10:42:50.589+0000","href":"https://dhis.moh.go.tz/api/maps/jpUjaDiBDbm"},{"id":"J3PILSThRVr","created":"2012-11-28T14:38:27.201+0000","name":"Kisarawe","lastUpdated":"2012-11-28T14:38:27.201+0000","href":"https://dhis.moh.go.tz/api/maps/J3PILSThRVr"},{"id":"zx3RWfhojtB","created":"2012-11-28T14:38:27.201+0000","name":"KISARAWE ANC","lastUpdated":"2012-11-28T14:38:27.201+0000","href":"https://dhis.moh.go.tz/api/maps/zx3RWfhojtB"}]}